%YAML 1.1
%TAG !u! tag:unity3d.com,2011:
--- !u!1045 &1
EditorBuildSettings:
  m_ObjectHideFlags: 0
  serializedVersion: 2
  m_Scenes:
  - enabled: 1
    path: Assets/Scenes/Preloader.unity
    guid: 57088e398e73580498620313f241b943
  - enabled: 1
    path: Assets/Scenes/Menu.unity
    guid: 5159eed006e619547b6a9e76d069fba1
  - enabled: 1
    path: Assets/Scenes/Game.unity
    guid: 218a23d551913294aa95c66e0647436a
  m_configObjects: {}
